<?xml version="1.0" encoding="utf-8"?>
<!-- Generator: Adobe Illustrator 16.2.0, SVG Export Plug-In . SVG Version: 6.00 Build 0)  -->
<!DOCTYPE svg PUBLIC "-//W3C//DTD SVG 1.1//EN" "http://www.w3.org/Graphics/SVG/1.1/DTD/svg11.dtd">
<svg version="1.1" xmlns="http://www.w3.org/2000/svg" xmlns:xlink="http://www.w3.org/1999/xlink" x="0px" y="0px" width="49px"
	 height="98px" viewBox="0 0 64 128" enable-background="new 0 0 64 128" xml:space="preserve">
<g id="circle_1_" enable-background="new    ">
</g>
<g id="Ellipse_4_1_" enable-background="new    ">
	<g>
		<g id="circle">
			<g>
				<path fill="#0655A3" d="M32,0C14.327,0,0,14.327,0,32s14.327,32,32,32s32-14.327,32-32S49.673,0,32,0z M32,62
					C15.432,62,2,48.569,2,32C2,15.432,15.432,2,32,2s30,13.432,30,30C62,48.569,48.568,62,32,62z"/>
			</g>
		</g>
		<g id="Ellipse_4">
			<g>
				<path fill-rule="evenodd" clip-rule="evenodd" fill="#0051A1" d="M32,23c-2.209,0-4,1.791-4,4s1.791,4,4,4s4-1.791,4-4
					S34.209,23,32,23z M32,29c-1.104,0-2-0.896-2-2s0.896-2,2-2s2,0.896,2,2S33.104,29,32,29z M32,16c-6.075,0-11,4.925-11,11
					s10.023,23,11,23c0.977,0,11-16.925,11-23S38.075,16,32,16z M32,48c-0.181,0-9-16.029-9-21s4.029-9,9-9s9,4.029,9,9
					S32.233,48,32,48z"/>
			</g>
		</g>
	</g>
</g>
<g id="Слой_3">
	<g>
		<g id="circle_3_">
			<g>
				<circle fill="#0655A3" cx="32" cy="96" r="32"/>
			</g>
		</g>
		<g id="Ellipse_4_3_">
			<g>
				<path fill-rule="evenodd" clip-rule="evenodd" fill="#FFFFFF" d="M32,87c-2.209,0-4,1.791-4,4s1.791,4,4,4s4-1.791,4-4
					S34.209,87,32,87z M32,93c-1.104,0-2-0.896-2-2s0.896-2,2-2s2,0.896,2,2S33.104,93,32,93z M32,80c-6.075,0-11,4.925-11,11
					s10.023,23,11,23c0.977,0,11-16.925,11-23S38.075,80,32,80z M32,112c-0.181,0-9-16.029-9-21s4.029-9,9-9s9,4.029,9,9
					S32.233,112,32,112z"/>
			</g>
		</g>
	</g>
</g>
</svg>
