<?xml version="1.0" encoding="utf-8"?>
<!-- Generator: Adobe Illustrator 16.0.0, SVG Export Plug-In . SVG Version: 6.00 Build 0)  -->
<!DOCTYPE svg PUBLIC "-//W3C//DTD SVG 1.1//EN" "http://www.w3.org/Graphics/SVG/1.1/DTD/svg11.dtd">
<svg version="1.1" id="Layer_1" xmlns="http://www.w3.org/2000/svg" xmlns:xlink="http://www.w3.org/1999/xlink" x="0px" y="0px"
	 width="40px" height="40px" viewBox="0 0 40 40" enable-background="new 0 0 40 40" xml:space="preserve">
<g>
	<g>
		<circle fill="none" stroke="#CCCCCC" stroke-width="3" stroke-miterlimit="10" cx="19.999" cy="20" r="17.501"/>
	</g>
</g>
<path fill-rule="evenodd" clip-rule="evenodd" fill="#CCCCCC" d="M16.109,13.989l9.902,9.901c0.586,0.586,0.586,1.535,0,2.121
	s-1.537,0.586-2.123,0l-9.9-9.901c-0.586-0.586-0.586-1.536,0-2.121C14.574,13.403,15.523,13.403,16.109,13.989z"/>
<path fill-rule="evenodd" clip-rule="evenodd" fill="#CCCCCC" d="M26.01,16.109l-9.898,9.903c-0.586,0.586-1.535,0.586-2.121,0
	s-0.586-1.537,0-2.123l9.898-9.901c0.586-0.586,1.537-0.586,2.121,0C26.596,14.573,26.596,15.523,26.01,16.109z"/>
<g>
</g>
<g>
</g>
<g>
</g>
<g>
</g>
<g>
</g>
<g>
</g>
<g>
</g>
<g>
</g>
<g>
</g>
<g>
</g>
<g>
</g>
<g>
</g>
<g>
</g>
<g>
</g>
<g>
</g>
</svg>
