<?xml version="1.0" encoding="UTF-8" standalone="no"?>
<svg width="64px" height="128px" viewBox="0 0 64 128" version="1.1" xmlns="http://www.w3.org/2000/svg" xmlns:xlink="http://www.w3.org/1999/xlink" xmlns:sketch="http://www.bohemiancoding.com/sketch/ns">
    <!-- Generator: Sketch 3.2.1 (9977) - http://www.bohemiancoding.com/sketch -->
    <title>Slice 1</title>
    <desc>Created with Sketch.</desc>
    <defs></defs>
    <g id="Page-1" stroke="none" stroke-width="1" fill="none" fill-rule="evenodd" sketch:type="MSPage">
        <g id="circle_1_" sketch:type="MSLayerGroup"></g>
        <g id="circle" sketch:type="MSLayerGroup" fill="#0051A1">
            <path d="M32,0 C14.327,0 0,14.327 0,32 C0,49.673 14.328,64 32,64 C49.672,64 64,49.673 64,32 C64,14.327 49.673,0 32,0 L32,0 Z M32,62 C15.432,62 2,48.569 2,32 C2,15.432 15.432,2 32,2 C48.568,2 62,15.432 62,32 C62,48.569 48.568,62 32,62 L32,62 Z" id="Shape" sketch:type="MSShapeGroup"></path>
        </g>
        <g id="circle" sketch:type="MSLayerGroup" fill="#0051A1" transform="translate(0, 64.000000)">
            <path d="M32,0 C14.327,0 0,14.327 0,32 C0,49.673 14.328,64 32,64 C49.672,64 64,49.673 64,32 C64,14.327 49.673,0 32,0 L32,0 Z M32,62 C15.432,62 2,48.569 2,32 C2,15.432 15.432,2 32,2 C48.568,2 62,15.432 62,32 C62,48.569 48.568,62 32,62 L32,62 Z" id="Shape" sketch:type="MSShapeGroup"></path>
        </g>
        <g id="Group-+-Group" sketch:type="MSLayerGroup" transform="translate(18.000000, 19.000000)">
            <g id="Group" transform="translate(0.000000, 11.142857)" sketch:type="MSShapeGroup">
                <path d="M1.07333333,1.38419048 L25.9106667,1.38419048" id="Shape" fill="#000000"></path>
                <path d="M25.9106667,2.3127619 L1.07333333,2.3127619 C0.521333333,2.3127619 0.0733333333,1.8967619 0.0733333333,1.38419048 C0.0733333333,0.871619048 0.521333333,0.455619048 1.07333333,0.455619048 L25.9106667,0.455619048 C26.4626667,0.455619048 26.9106667,0.871619048 26.9106667,1.38419048 C26.9106667,1.8967619 26.4626667,2.3127619 25.9106667,2.3127619 L25.9106667,2.3127619 Z" id="Shape" fill="#0051A1"></path>
            </g>
            <g id="Group" transform="translate(12.000000, 0.000000)" sketch:type="MSShapeGroup">
                <path d="M1.492,0.996666667 L1.492,24.0586667" id="Shape" fill="#000000"></path>
                <path d="M1.492,24.9872381 C0.94,24.9872381 0.492,24.5712381 0.492,24.0586667 L0.492,0.996666667 C0.492,0.484095238 0.94,0.0680952381 1.492,0.0680952381 C2.044,0.0680952381 2.492,0.484095238 2.492,0.996666667 L2.492,24.0586667 C2.492,24.5712381 2.044,24.9872381 1.492,24.9872381 L1.492,24.9872381 Z" id="Shape" fill="#0051A1"></path>
            </g>
        </g>
        <g id="Group-+-Group-2" sketch:type="MSLayerGroup" transform="translate(19.000000, 83.000000)">
            <g id="Group" transform="translate(0.000000, 11.142857)" sketch:type="MSShapeGroup">
                <path d="M1.07333333,1.38419048 L25.9106667,1.38419048" id="Shape" fill="#000000"></path>
                <path d="M25.9106667,2.3127619 L1.07333333,2.3127619 C0.521333333,2.3127619 0.0733333333,1.8967619 0.0733333333,1.38419048 C0.0733333333,0.871619048 0.521333333,0.455619048 1.07333333,0.455619048 L25.9106667,0.455619048 C26.4626667,0.455619048 26.9106667,0.871619048 26.9106667,1.38419048 C26.9106667,1.8967619 26.4626667,2.3127619 25.9106667,2.3127619 L25.9106667,2.3127619 Z" id="Shape" fill="#0051A1"></path>
            </g>
        </g>
    </g>
</svg>