<?xml version="1.0" encoding="utf-8"?>
<!-- Generator: Adobe Illustrator 16.2.0, SVG Export Plug-In . SVG Version: 6.00 Build 0)  -->
<!DOCTYPE svg PUBLIC "-//W3C//DTD SVG 1.1//EN" "http://www.w3.org/Graphics/SVG/1.1/DTD/svg11.dtd">
<svg version="1.1" id="icon_search_1_" xmlns="http://www.w3.org/2000/svg" xmlns:xlink="http://www.w3.org/1999/xlink" x="0px"
	 y="0px" width="16px" height="16px" viewBox="0 0 16 16" enable-background="new 0 0 16 16" xml:space="preserve">
<g id="icon_search">
	<g>
		<path fill-rule="evenodd" clip-rule="evenodd" fill="#FFFFFF" d="M12.068,10.516l-1.157-0.198
			c0.871-1.008,1.401-2.318,1.401-3.755c0-3.176-2.574-5.751-5.751-5.751c-3.176,0-5.751,2.575-5.751,5.751s2.575,5.751,5.751,5.751
			c1.401,0,2.684-0.502,3.682-1.334l0.271,1.09l3.926,3.926l1.554-1.554L12.068,10.516z M6.555,9.971
			c-1.886,0-3.415-1.529-3.415-3.414c0-1.887,1.529-3.415,3.415-3.415c1.885,0,3.414,1.528,3.414,3.415
			C9.969,8.441,8.44,9.971,6.555,9.971z"/>
	</g>
</g>
</svg>
